{
      "noradID" : "39762",
      "bus": [
        {
          "reference": "Placeholder",
          "bus": "Placeholder"
        }
      ],
      "contractor" : [
        {
          "reference" : "Placeholder",
          "contractor" : "Placeholder"
        }
      ],
      
      "cosparID" : [
        {
          "reference" : "Placeholder",
          "cosparID" : "2014-028B"
        }
      ],
      "descriptionLong" : [
        {
          "reference" : "Placeholder",
          "descriptionLong" : "Placeholder"
        }
      ],
      "descriptionShort" : [
        {
          "reference" : "Placeholder",
          "descriptionShort" : "Communication"
        }
      ],
      "dimensionDescription" : [
        {
          "reference" : "Placeholder",
          "dimensionDescription" : "Placeholder",
          "length" : "Placeholder",
          "width" : "Placeholder",
          "height" : "Placeholder"
        }
      ],

      "dimensionVolumeM3" : [
        {
          "reference" : "Placeholder",
          "cubicMeters" : 1234
        }
      ],

      "launchMassKg" : [
        {
          "reference" : "Placeholder",
          "launchMassKg" : 1234
        }
      ],

      "launchSites" : [
        {
          "reference" : "Placeholder",
          "name" : "Plesetsk Missile and Space Complex, Russia",
          "latitude" : -123,
          "longitude" : 123
        }
      ],

      "manufacturer" : [
        {
          "reference" : "Placeholder",
          "name" : "Placeholder"
        }
      ],

      "missionDuration" : [
        {
          "reference" : "Placeholder",
          "start" : "23 May 2014",
          "plannedMissionDuration" : "Placeholder",
          "actualMissionDuration" : "Placeholder"
        }
      ],

      "names": [      
        {
          "reference": "Placeholder",
          "names": "COSMOS 2497"
        },
        {
          "reference": "Placeholder",
          "names": "Placeholder"
        }
      ],

      "ownership" : [
        {
          "reference" : "Placeholder",
          "country" : "Commonwealth of Independent States (former USSR)",
          "company" : "Placeholder",
          "endDate" : "12/34/56"
        }
      ],

      "radarCrossSection" : [
        {
          "reference" : "Placeholder",
          "radarCrossSection" : 1234
        }
      ],

      "transponder": [
        {
          "reference": "Placeholder",
          "band": "Placeholder",
          "scale": "Placeholder",
          "direction": "Placeholder"
         }
      ]
}